﻿<?xml version="1.0" encoding="UTF-8"?>
<TestRun id="c2951b9f-5dd9-4b94-8bd0-ed79b02733cc" name="sampathkumar.sree@ASPLAP625 2019-08-03 04:33:34" runUser="ASPIRESYS\sampathkumar.sree" xmlns="http://microsoft.com/schemas/VisualStudio/TeamTest/2010">
  <TestSettings name="Local" id="a5b22e26-8937-457f-8f7f-a60f944e9181">
    <Description>These are default test settings for a local test run.</Description>
    <Deployment enabled="false" runDeploymentRoot="sampathkumar.sree_ASPLAP625 2019-08-03 04_33_34">
      <DeploymentItem filename="D:\Projects\Patientmaintenance\MVCWebSite\UnitTestMvcWebSite\bin\Debug\MvcContrib.TestHelper.dll" />
      <DeploymentItem filename="D:\Projects\Patientmaintenance\DataModels\bin\Debug\DataModels.dll" />
      <DeploymentItem filename="D:\Projects\Patientmaintenance\MVCWebSite\UnitTestMvcWebSite\bin\Debug\MvcContrib.dll" />
      <DeploymentItem filename="D:\Projects\Patientmaintenance\MVCWebSite\bin\MVCWebSite.dll" />
      <DeploymentItem filename="D:\Projects\Patientmaintenance\MVCWebSite\UnitTestMvcWebSite\bin\Debug\Rhino.Mocks.dll" />
      <DeploymentItem filename="D:\Projects\Patientmaintenance\MVCWebSite\UnitTestMvcWebSite\bin\Debug\nunit.framework.dll" />
      <DeploymentItem filename="D:\Projects\Patientmaintenance\CodeProjectBLL\bin\Debug\CodeProjectBLL.dll" />
    </Deployment>
    <Execution>
      <TestTypeSpecific />
      <AgentRule name="Execution Agents">
      </AgentRule>
    </Execution>
  </TestSettings>
  <Times creation="2019-08-03T04:33:34.5944656-07:00" queuing="2019-08-03T04:33:34.6100839-07:00" start="2019-08-03T04:33:34.7038117-07:00" finish="2019-08-03T04:33:37.4368465-07:00" />
  <ResultSummary outcome="Failed">
    <Counters total="2" executed="2" passed="1" error="0" failed="1" timeout="0" aborted="0" inconclusive="0" passedButRunAborted="0" notRunnable="0" notExecuted="0" disconnected="0" warning="0" completed="0" inProgress="0" pending="0" />
  </ResultSummary>
  <TestDefinitions>
    <UnitTest name="DisplayPatientMaintenanceTest" storage="d:\projects\patientmaintenance\mvcwebsite\unittestmvcwebsite\bin\debug\unittestmvcwebsite.dll" id="ca58d11e-ffc3-704f-8c25-de9037508e79">
      <Execution id="fbc93ecc-a2d3-4d14-8e07-4c82dfc01419" />
      <TestMethod codeBase="D:/Projects/Patientmaintenance/MVCWebSite/UnitTestMvcWebSite/bin/Debug/UnitTestMvcWebSite.DLL" adapterTypeName="Microsoft.VisualStudio.TestTools.TestTypes.Unit.UnitTestAdapter, Microsoft.VisualStudio.QualityTools.Tips.UnitTest.Adapter, Version=10.0.0.0, Culture=neutral, PublicKeyToken=b03f5f7f11d50a3a" className="UnitTestMvcWebSite.PatientControllerTest, UnitTestMvcWebSite, Version=1.0.0.0, Culture=neutral, PublicKeyToken=null" name="DisplayPatientMaintenanceTest" />
      <AspNet webSiteUrl="http://localhost:1327/">
        <Host pathToWebApp="D:\Projects\Patientmaintenance\MVCWebSite" webAppRoot="/" />
      </AspNet>
    </UnitTest>
    <UnitTest name="AddPatientTest" storage="d:\projects\patientmaintenance\mvcwebsite\unittestmvcwebsite\bin\debug\unittestmvcwebsite.dll" id="8bf0820a-3c95-4d0c-d7f2-eeb44a032d1b">
      <Execution id="f126ce40-85ed-45dd-94b2-2f750aaab560" />
      <TestMethod codeBase="D:/Projects/Patientmaintenance/MVCWebSite/UnitTestMvcWebSite/bin/Debug/UnitTestMvcWebSite.DLL" adapterTypeName="Microsoft.VisualStudio.TestTools.TestTypes.Unit.UnitTestAdapter, Microsoft.VisualStudio.QualityTools.Tips.UnitTest.Adapter, Version=10.0.0.0, Culture=neutral, PublicKeyToken=b03f5f7f11d50a3a" className="UnitTestMvcWebSite.PatientControllerTest, UnitTestMvcWebSite, Version=1.0.0.0, Culture=neutral, PublicKeyToken=null" name="AddPatientTest" />
      <AspNet webSiteUrl="http://localhost:1327/">
        <Host pathToWebApp="D:\Projects\Patientmaintenance\MVCWebSite" webAppRoot="/" />
      </AspNet>
    </UnitTest>
  </TestDefinitions>
  <TestLists>
    <TestList name="Results Not in a List" id="8c84fa94-04c1-424b-9868-57a2d4851a1d" />
    <TestList name="All Loaded Results" id="19431567-8539-422a-85d7-44ee4e166bda" />
  </TestLists>
  <TestEntries>
    <TestEntry testId="8bf0820a-3c95-4d0c-d7f2-eeb44a032d1b" executionId="f126ce40-85ed-45dd-94b2-2f750aaab560" testListId="8c84fa94-04c1-424b-9868-57a2d4851a1d" />
    <TestEntry testId="ca58d11e-ffc3-704f-8c25-de9037508e79" executionId="fbc93ecc-a2d3-4d14-8e07-4c82dfc01419" testListId="8c84fa94-04c1-424b-9868-57a2d4851a1d" />
  </TestEntries>
  <Results>
    <UnitTestResult executionId="f126ce40-85ed-45dd-94b2-2f750aaab560" testId="8bf0820a-3c95-4d0c-d7f2-eeb44a032d1b" testName="AddPatientTest" computerName="ASPLAP625" startTime="2019-08-03T04:33:34.7194328-07:00" endTime="2019-08-03T04:33:35.0861015-07:00" testType="13cdc9d9-ddb5-4fa4-a97d-d965ccfc6d4b" outcome="Failed" testListId="8c84fa94-04c1-424b-9868-57a2d4851a1d" relativeResultsDirectory="f126ce40-85ed-45dd-94b2-2f750aaab560">
      <Output>
        <ErrorInfo>
          <Message>Could not connect to the Web server for page 'http://localhost:1327/'. The remote server returned an error: (503) Server Unavailable.. Check that the Web server is running and visible on the network and that the page specified exists.</Message>
        </ErrorInfo>
      </Output>
    </UnitTestResult>
    <UnitTestResult executionId="fbc93ecc-a2d3-4d14-8e07-4c82dfc01419" testId="ca58d11e-ffc3-704f-8c25-de9037508e79" testName="DisplayPatientMaintenanceTest" computerName="ASPLAP625" duration="00:00:01.2437807" startTime="2019-08-03T04:33:35.1016851-07:00" endTime="2019-08-03T04:33:37.4368465-07:00" testType="13cdc9d9-ddb5-4fa4-a97d-d965ccfc6d4b" outcome="Passed" testListId="8c84fa94-04c1-424b-9868-57a2d4851a1d" relativeResultsDirectory="fbc93ecc-a2d3-4d14-8e07-4c82dfc01419">
    </UnitTestResult>
  </Results>
</TestRun>