﻿<?xml version="1.0" encoding="UTF-8"?>
<TestRun id="721d4ec7-0b19-4c18-9f31-79b91d925eee" name="sampathkumar.sree@ASPLAP625 2019-08-03 04:07:28" runUser="ASPIRESYS\sampathkumar.sree" xmlns="http://microsoft.com/schemas/VisualStudio/TeamTest/2010">
  <TestSettings name="Local" id="a5b22e26-8937-457f-8f7f-a60f944e9181">
    <Description>These are default test settings for a local test run.</Description>
    <Deployment enabled="false" runDeploymentRoot="sampathkumar.sree_ASPLAP625 2019-08-03 04_07_28">
      <DeploymentItem filename="D:\Projects\Patientmaintenance\CodeProjectBLL\bin\Debug\CodeProjectBLL.dll" />
      <DeploymentItem filename="D:\Projects\Patientmaintenance\MVCWebSite\UnitTestMvcWebSite\bin\Debug\MvcContrib.dll" />
      <DeploymentItem filename="D:\Projects\Patientmaintenance\MVCWebSite\bin\MVCWebSite.dll" />
      <DeploymentItem filename="D:\Projects\Patientmaintenance\MVCWebSite\UnitTestMvcWebSite\bin\Debug\MvcContrib.TestHelper.dll" />
      <DeploymentItem filename="D:\Projects\Patientmaintenance\DataModels\bin\Debug\DataModels.dll" />
    </Deployment>
    <Execution>
      <TestTypeSpecific />
      <AgentRule name="Execution Agents">
      </AgentRule>
    </Execution>
  </TestSettings>
  <Times creation="2019-08-03T04:07:28.0449925-07:00" queuing="2019-08-03T04:07:28.9296355-07:00" start="2019-08-03T04:07:29.0237610-07:00" finish="2019-08-03T04:07:36.3859827-07:00" />
  <ResultSummary outcome="Failed">
    <Counters total="2" executed="2" error="0" failed="2" timeout="0" aborted="0" inconclusive="0" passedButRunAborted="0" notRunnable="0" notExecuted="0" disconnected="0" warning="0" passed="0" completed="0" inProgress="0" pending="0" />
  </ResultSummary>
  <TestDefinitions>
    <UnitTest name="DisplayPatientMaintenanceTest" storage="d:\projects\patientmaintenance\mvcwebsite\unittestmvcwebsite\bin\debug\unittestmvcwebsite.dll" id="ca58d11e-ffc3-704f-8c25-de9037508e79">
      <Execution id="29ee201c-183f-4af6-a161-c17abcdc4dae" />
      <TestMethod codeBase="D:/Projects/Patientmaintenance/MVCWebSite/UnitTestMvcWebSite/bin/Debug/UnitTestMvcWebSite.DLL" adapterTypeName="Microsoft.VisualStudio.TestTools.TestTypes.Unit.UnitTestAdapter, Microsoft.VisualStudio.QualityTools.Tips.UnitTest.Adapter, Version=10.0.0.0, Culture=neutral, PublicKeyToken=b03f5f7f11d50a3a" className="UnitTestMvcWebSite.PatientControllerTest, UnitTestMvcWebSite, Version=1.0.0.0, Culture=neutral, PublicKeyToken=null" name="DisplayPatientMaintenanceTest" />
      <AspNet webSiteUrl="http://localhost:1327/">
        <Host pathToWebApp="D:\Projects\Patientmaintenance\MVCWebSite" webAppRoot="/" />
      </AspNet>
    </UnitTest>
    <UnitTest name="AddPatientTest" storage="d:\projects\patientmaintenance\mvcwebsite\unittestmvcwebsite\bin\debug\unittestmvcwebsite.dll" id="8bf0820a-3c95-4d0c-d7f2-eeb44a032d1b">
      <Execution id="fa39e925-5daa-4ca3-830e-533f66f5a650" />
      <TestMethod codeBase="D:/Projects/Patientmaintenance/MVCWebSite/UnitTestMvcWebSite/bin/Debug/UnitTestMvcWebSite.DLL" adapterTypeName="Microsoft.VisualStudio.TestTools.TestTypes.Unit.UnitTestAdapter, Microsoft.VisualStudio.QualityTools.Tips.UnitTest.Adapter, Version=10.0.0.0, Culture=neutral, PublicKeyToken=b03f5f7f11d50a3a" className="UnitTestMvcWebSite.PatientControllerTest, UnitTestMvcWebSite, Version=1.0.0.0, Culture=neutral, PublicKeyToken=null" name="AddPatientTest" />
      <AspNet webSiteUrl="http://localhost:1327/">
        <Host pathToWebApp="D:\Projects\Patientmaintenance\MVCWebSite" webAppRoot="/" />
      </AspNet>
    </UnitTest>
  </TestDefinitions>
  <TestLists>
    <TestList name="Results Not in a List" id="8c84fa94-04c1-424b-9868-57a2d4851a1d" />
    <TestList name="All Loaded Results" id="19431567-8539-422a-85d7-44ee4e166bda" />
  </TestLists>
  <TestEntries>
    <TestEntry testId="8bf0820a-3c95-4d0c-d7f2-eeb44a032d1b" executionId="fa39e925-5daa-4ca3-830e-533f66f5a650" testListId="8c84fa94-04c1-424b-9868-57a2d4851a1d" />
    <TestEntry testId="ca58d11e-ffc3-704f-8c25-de9037508e79" executionId="29ee201c-183f-4af6-a161-c17abcdc4dae" testListId="8c84fa94-04c1-424b-9868-57a2d4851a1d" />
  </TestEntries>
  <Results>
    <UnitTestResult executionId="fa39e925-5daa-4ca3-830e-533f66f5a650" testId="8bf0820a-3c95-4d0c-d7f2-eeb44a032d1b" testName="AddPatientTest" computerName="ASPLAP625" duration="00:00:00.0204487" startTime="2019-08-03T04:07:29.1977539-07:00" endTime="2019-08-03T04:07:36.2593270-07:00" testType="13cdc9d9-ddb5-4fa4-a97d-d965ccfc6d4b" outcome="Failed" testListId="8c84fa94-04c1-424b-9868-57a2d4851a1d" relativeResultsDirectory="fa39e925-5daa-4ca3-830e-533f66f5a650">
      <Output>
        <ErrorInfo>
          <Message>Test method UnitTestMvcWebSite.PatientControllerTest.AddPatientTest threw exception: 
System.IO.FileNotFoundException: Could not load file or assembly 'Rhino.Mocks, Version=3.6.0.0, Culture=neutral, PublicKeyToken=0b3305902db7183f' or one of its dependencies. The system cannot find the file specified.WRN: Assembly binding logging is turned OFF.
To enable assembly bind failure logging, set the registry value [HKLM\Software\Microsoft\Fusion!EnableLog] (DWORD) to 1.
Note: There is some performance penalty associated with assembly bind failure logging.
To turn this feature off, remove the registry value [HKLM\Software\Microsoft\Fusion!EnableLog].
</Message>
          <StackTrace>    at MvcContrib.TestHelper.TestControllerBuilder..ctor()
   at UnitTestMvcWebSite.PatientControllerTest.AddPatientTest() in D:\Projects\Patientmaintenance\MVCWebSite\UnitTestMvcWebSite\PatientControllerTest.cs:line 129
</StackTrace>
        </ErrorInfo>
      </Output>
    </UnitTestResult>
    <UnitTestResult executionId="29ee201c-183f-4af6-a161-c17abcdc4dae" testId="ca58d11e-ffc3-704f-8c25-de9037508e79" testName="DisplayPatientMaintenanceTest" computerName="ASPLAP625" duration="00:00:00.0032972" startTime="2019-08-03T04:07:36.2652378-07:00" endTime="2019-08-03T04:07:36.3200940-07:00" testType="13cdc9d9-ddb5-4fa4-a97d-d965ccfc6d4b" outcome="Failed" testListId="8c84fa94-04c1-424b-9868-57a2d4851a1d" relativeResultsDirectory="29ee201c-183f-4af6-a161-c17abcdc4dae">
      <Output>
        <ErrorInfo>
          <Message>Test method UnitTestMvcWebSite.PatientControllerTest.DisplayPatientMaintenanceTest threw exception: 
System.IO.FileNotFoundException: Could not load file or assembly 'Rhino.Mocks, Version=3.6.0.0, Culture=neutral, PublicKeyToken=0b3305902db7183f' or one of its dependencies. The system cannot find the file specified.WRN: Assembly binding logging is turned OFF.
To enable assembly bind failure logging, set the registry value [HKLM\Software\Microsoft\Fusion!EnableLog] (DWORD) to 1.
Note: There is some performance penalty associated with assembly bind failure logging.
To turn this feature off, remove the registry value [HKLM\Software\Microsoft\Fusion!EnableLog].
</Message>
          <StackTrace>    at MvcContrib.TestHelper.TestControllerBuilder..ctor()
   at UnitTestMvcWebSite.PatientControllerTest.DisplayPatientMaintenanceTest() in D:\Projects\Patientmaintenance\MVCWebSite\UnitTestMvcWebSite\PatientControllerTest.cs:line 92
</StackTrace>
        </ErrorInfo>
      </Output>
    </UnitTestResult>
  </Results>
</TestRun>